{
    "accounts":[
        {
            "id": "1",
            "username": "",
            "password": "",
            "hostIMAP": "",
            "portIMAP": "",
            "conTypeIMAP": "",
            "hostSMTP": "",
            "portSMTP": "",
            "conTypeSMTP": ""
        }
    ]
}
